C:\Users\Supriya_Divvela\Documents\workspace-spring-tool-suite-4-4.18.0.RELEASE\RdJavaAssesment\src\test\java\com\epam\testcontroller\TestBatchController.java
C:\Users\Supriya_Divvela\Documents\workspace-spring-tool-suite-4-4.18.0.RELEASE\RdJavaAssesment\src\test\java\com\epam\testcontroller\TestAssociateController.java
C:\Users\Supriya_Divvela\Documents\workspace-spring-tool-suite-4-4.18.0.RELEASE\RdJavaAssesment\src\test\java\com\epam\testservice\TestBatchService.java
C:\Users\Supriya_Divvela\Documents\workspace-spring-tool-suite-4-4.18.0.RELEASE\RdJavaAssesment\src\test\java\com\epam\testservice\TestAssociateService.java
