-------------------------------------------------------------------------------
Test set: com.epam.testservice.TestBatchService
-------------------------------------------------------------------------------
Tests run: 8, Failures: 0, Errors: 0, Skipped: 0, Time elapsed: 0.174 s - in com.epam.testservice.TestBatchService
